^H:\THE FOREST ARCHER\THE FOREST ARCHER\SOURCE.CPP
/c /ZI /nologo /W3 /WX- /sdl /Od /Oy- /D _MBCS /Gm /EHsc /RTC1 /MDd /GS /fp:precise /Zc:wchar_t /Zc:forScope /Fo"DEBUG\\" /Fd"DEBUG\VC110.PDB" /Gd /TP /analyze- H:\THE FOREST ARCHER\THE FOREST ARCHER\SOURCE.CPP
^G:\THE FOREST ARCHER\THE FOREST ARCHER\SOURCE.CPP
/c /ZI /nologo /W3 /WX- /sdl /Od /Oy- /D _MBCS /Gm /EHsc /RTC1 /MDd /GS /fp:precise /Zc:wchar_t /Zc:forScope /Fo"DEBUG\\" /Fd"DEBUG\VC110.PDB" /Gd /TP /analyze- G:\THE FOREST ARCHER\THE FOREST ARCHER\SOURCE.CPP
